{
  "meta": {
    "paging": {
      "page": 1,
      "size": 10,
      "totalItems": 3000,
      "totalPages": 300
    }
  },
  "data": [
    {
      "_issuerId": 5678,
      "_stateId": null,
      "c2iq": "AAPL:US",
      "country": "US",
      "issuerName": "Apple Inc",
      "issuerTicker": "AAPL",
      "performance": {
        "eodPrices": [[175.5, "2024-03-14"], [174.2, "2024-03-13"]],
        "mcap": 2800000000000,
        "trailing1": 175.5,
        "trailing1Change": 0.75,
        "trailing7": 172.3,
        "trailing7Change": 1.86,
        "trailing30": 168.0,
        "trailing30Change": 4.46,
        "trailing90": 155.0,
        "trailing90Change": 13.23,
        "trailing365": 145.0,
        "trailing365Change": 21.03,
        "wtd": 173.0,
        "wtdChange": 1.45,
        "mtd": 170.0,
        "mtdChange": 3.24,
        "qtd": 165.0,
        "qtdChange": 6.36,
        "ytd": 160.0,
        "ytdChange": 9.69
      },
      "sector": "information-technology",
      "stats": {
        "countTrades": 500,
        "countPoliticians": 85,
        "volume": 50000000,
        "dateLastTraded": "2024-03-14"
      }
    }
  ]
}
